NOTA 3,68


==================================
1.
5.0
BUEN TRABAJO!!
==================================
2.

----------------------------------
p1
3.7
-Comentar el código
-No realizó el ejercicio de herencia


----------------------------------
p2

3.5
-No funciona para algunos valores. Ex:R=0
-No realiza el plot
-Revisar el objetivo del problema, no es lo que se pedía

  ==================================
3.

----------------------------------
p1
4.0
- La función que define la ecuación solo lleva una variables, NO 2 variables
- Revisar la solucion numerica, el error de las dos curvas en muy grande
----------------------------------
p2
3
- Documentar correctamente los métodos y atributos
- No se debe colocar funciones en el execution.py (correr_pendulo_simple.py)
-No tengo el archivo de las ecuaciones que desacopla el sistema
==================================
4.
5
- BUEN TRABAJO!!