NOTA= 4,14

==================================
1.
5.0
BUEN TRABAJO!!
==================================
2.
----------------------------------
p1
4.0
-El tiro parabolico no esta bueno cuando y0!=0 no llega hasta el piso

----------------------------------
p2

-4.2

- Para ciertos valores como l=o, no funciona
-El plot no cambia el cambiar los atributos como por ex:

==================================
3.

----------------------------------
p1
0.0
-No tiene punto
----------------------------------
p2
5
- Buena trabajo!!

==================================
4.
5
- BUEN TRABAJO!!