NOTA 4,54


==================================
1.
5.0
BUEN TRABAJO!!
==================================
2.

----------------------------------
p1
4.0
-No funciona la clase herencia:
El angulo necesario para alcanzar una distancia de 50 m es de NAN grados.
No se cumple el objetivo de aplicar herencia

----------------------------------
p2

3.7

- NO funciona para diferentes valores ex:l=0
solucion: Realizar el control en código o anotar que no se debe poner l=0

- Cuando cambio valores de los atributos NO cambia el plot

- La velocidad de pendulo despues de la colision se debe calcular, NO fija

==================================
3.

----------------------------------
p1
5
- BUEN TRABAJO!!
----------------------------------
p2
5
- BUEN TRABAJO!!

==================================
4.
5
- BUEN TRABAJO!!